PCA: sports analytics
…
Insights?

Which are the teams with the best players?

data.frame(z1=pca$x[,1],team=team) %>% group_by(team) %>% summarise(mean=mean(z1)) %>% arrange(desc(mean))

## # A tibble: 31 x 2
##    team   mean
##    <chr> <dbl>
##  1 HOU   1.27 
##  2 MIN   0.758
##  3 NOP   0.616
##  4 WAS   0.491
##  5 TOR   0.490
##  6 MIA   0.420
##  7 OKC   0.349
##  8 ATL   0.330
##  9 GSW   0.261
## 10 BOS   0.256
## # ... with 21 more rows
…
