Case Study: Customer Analytics
…
Then, tune the hyper-parameters using cross-validation (with training data)

lda_tune <- wfl %>%
  tune_grid(resamples = cv_splits,
         #   grid = expand_grid(frac_common_cov = seq(0.5, 1, by = 0.1), frac_identity = seq(0.1, 5, by = 0.1)),
            grid = 25, # automatic, try 25 values in the grid
            metrics = metric_set(accuracy, kap, roc_auc),
            control = control_grid(save_pred = TRUE, verbose = TRUE)) 

lda_tune %>%
  collect_metrics()

## # A tibble: 75 × 8
##    frac_common_cov frac_identity .metric  .estimator  mean     n std_err .config
##              <dbl>         <dbl> <chr>    <chr>      <dbl> <int>   <dbl> <chr>  
##  1           0.127        0.565  accuracy binary     0.767     5 0.00538 Prepro…
##  2           0.127        0.565  kap      binary     0.473     5 0.0115  Prepro…
##  3           0.127        0.565  roc_auc  binary     0.846     5 0.00527 Prepro…
##  4           0.409        0.0812 accuracy binary     0.775     5 0.00801 Prepro…
##  5           0.409        0.0812 kap      binary     0.483     5 0.0160  Prepro…
##  6           0.409        0.0812 roc_auc  binary     0.847     5 0.00531 Prepro…
##  7           0.681        0.660  accuracy binary     0.788     5 0.00640 Prepro…
##  8           0.681        0.660  kap      binary     0.490     5 0.0132  Prepro…
##  9           0.681        0.660  roc_auc  binary     0.847     5 0.00594 Prepro…
## 10           0.111        0.912  accuracy binary     0.775     5 0.00714 Prepro…
## # … with 65 more rows
…
